09/11/1984
09/12/1956
05/25/1907
06/23/1906
06/12/1900
12/26/1922
03/12/2014
10/04/2008
11/15/1966
11/08/1902
04/03/1947
11/11/1957
12/24/1966
05/05/1906
01/17/1940
01/17/1949
01/28/1972
04/11/1987
10/23/2012
06/08/1917
08/26/1988
09/06/1947
12/11/1990
10/18/1906
09/25/1907
12/26/1938
12/24/1919
06/20/1947
09/16/2012
03/04/1948
01/07/1939
09/22/1930
08/03/1999
07/18/2019
09/21/2007
09/17/1990
05/25/1925
08/03/1906
07/13/2001
06/21/1958
10/22/1998
09/27/1945
11/04/1930
07/21/1948
08/19/1945
11/04/1964
04/01/1938
07/10/1972
07/29/1904
03/11/1996
09/01/1925
06/13/1927
10/16/1971
01/19/2007
05/30/2016
03/28/1982
08/30/1958
01/01/2009
11/27/2018
03/04/1927
03/16/2015
01/01/1903
02/25/2016
06/16/1957
12/20/1999
09/15/2014
04/22/2002
01/15/1920
05/23/1910
04/07/1988
06/19/2020
03/11/2006
09/19/1999
02/02/2012
07/28/1918
07/09/1912
07/19/1914
05/04/1995
10/09/1931
05/01/1962
06/24/1980
11/13/2008
03/29/1964
10/03/1927
08/26/1970
07/13/1961
07/13/1930
11/17/1925
09/16/1927
06/26/1930
12/22/1940
06/22/2005
12/18/1990
09/28/2016
04/08/1951
11/27/1935
03/04/1966
05/07/2011
08/25/1951
11/27/2012
12/15/1913
09/20/1959
02/06/1923
12/02/2005
01/03/1992
09/02/1917
07/29/1915
03/12/1987
05/22/1985
04/26/1996
11/24/1989
08/23/1986
08/18/2009
02/05/1993
03/15/1906
01/04/1972
10/23/1900
12/22/1949
05/09/1989
03/19/1977
02/29/1916
09/24/1938
08/21/1919
10/19/1980
01/28/1944
11/05/1954
06/09/1965
04/11/1994
12/15/1976
06/24/1970
03/23/1989
04/09/1936
04/04/1980
11/17/1924
02/15/1998
07/01/1929
08/07/1931
01/10/2013
07/11/1999
08/16/2018
10/11/2006
08/05/1936
04/28/1987
04/22/1916
05/14/2020
11/22/2018
09/25/1921
09/25/1968
12/22/2011
11/27/1925
12/08/1920
08/25/2006
05/03/2017
01/05/1909
06/05/1923
04/01/1911
03/19/2018
11/29/2000
02/09/2005
05/04/2010
12/06/1926
08/05/1906
12/26/1927
03/21/2013
09/06/1912
02/08/1934
07/03/1927
05/07/1962
10/10/1980
11/13/1964
12/19/1918
01/25/2010
02/04/1914
05/29/1910
03/20/1951
12/05/1934
04/04/1927
01/02/2009
11/01/1963
01/29/1919
08/03/1938
03/15/1968
05/03/1999
09/26/1988
07/26/1955
07/05/1946
04/29/1963
06/28/1972
01/06/2004
11/06/1930
09/05/2001
07/29/1901
05/11/1979
06/11/1938
02/15/2007
03/28/1977
03/18/1904
10/06/1983
09/29/2017
05/03/1934
06/27/1986
09/15/1956
04/23/1993
05/28/1902
05/09/1968
12/27/2000
04/03/1960
02/25/2019
04/10/2017
02/29/1928
10/23/1978
10/02/1967
04/09/2015
06/29/1908
04/24/1996
02/21/1949
12/16/1998
02/21/1970
10/08/2020
07/20/1934
04/26/1942
01/22/1964
11/08/1946
04/08/1985
04/19/2013
03/15/1994
10/12/1943
12/30/1909
08/22/1929
04/24/1906
01/01/1954
04/06/1951
01/09/1930
05/13/1935
11/14/1999
12/23/1991
02/05/1949
10/21/1942
04/01/1900
01/17/1925
08/25/1979
11/20/1988
01/01/1939
07/22/1982
10/10/2017
01/21/1940
12/09/1983
11/12/1965
05/31/1961
06/05/2008
09/02/1945
08/15/1929
05/30/1951
11/15/1989
04/18/1962
02/22/1997
07/26/2006
01/26/2013
12/28/1948
08/12/1976
12/22/1993
04/17/1982
04/27/1935
04/25/1945
06/02/1989
05/09/1943
04/21/1919
02/01/1934
12/30/1917
09/09/1954
09/17/1998
04/29/1938
04/01/1900
10/06/2015
01/23/1945
03/23/1929
10/10/1922
10/06/1928
12/22/1972
04/30/1936
01/24/1988
02/07/1904
11/17/1921
12/30/1985
06/12/1996
05/04/1966
05/23/2000
10/18/1982
12/16/1918
04/26/1945
04/13/2019
01/06/2019
01/29/2017
08/03/2004
10/27/1919
02/22/1935
06/22/1974
01/24/1929
03/12/1912
10/06/1909
01/20/1965
10/11/1900
12/17/1972
02/15/2002
07/25/2004
12/01/2016
06/02/1939
05/10/1984
04/24/1925
04/22/1986
12/02/2016
10/02/1992
03/09/1976
11/28/1947
08/15/2003
06/18/1935
04/08/2006
03/17/1942
04/07/1940
11/18/2006
07/15/2008
06/22/1925
10/13/1995
02/23/1985
08/27/1947
04/01/1992
04/20/1978
10/21/1987
05/11/1986
01/18/1904
06/15/1930
09/27/1994
11/30/1900
01/04/1986
02/27/1958
10/23/1930
12/14/1966
05/22/2007
02/17/1959
09/05/1989
01/01/2005
08/24/2002
07/08/1985
09/12/1969
01/27/1983
12/03/2002
02/15/2017
07/29/1961
09/08/1911
01/22/1942
07/10/1968
01/21/1920
08/15/1934
04/26/1961
09/30/1985
03/03/1970
06/07/1950
04/16/1984
09/04/1952
02/09/1970
05/26/1901
12/18/2020
09/19/1933
08/18/1960
11/18/1939
12/20/2001
11/21/1993
04/29/1960
08/16/1957
05/20/1971
01/27/1924
10/17/1930
12/23/1923
10/11/2020
02/08/1939
03/30/1902
02/24/1951
12/13/1926
07/30/1942
04/11/1947
10/25/1978
07/25/1962
09/10/1933
02/20/2002
12/24/1953
01/01/1925
12/20/1952
07/26/1948
10/02/1962
09/16/1957
09/04/1940
09/26/2009
03/21/2018
10/20/2010
05/03/1960
02/07/1941
06/13/1926
12/20/2015
02/06/1980
09/27/2012
01/09/1953
07/14/1923
07/15/1914
02/09/1917
09/14/1971
10/17/2005
05/04/2007
01/14/1900
03/21/1914
08/28/1942
01/13/1914
12/17/1991
04/18/1908
08/01/1967
04/11/1959
09/29/1907
02/09/1917
11/27/1921
05/23/2007
10/13/1968
03/07/1986
04/10/1955
04/13/1976
10/07/1924
05/22/1953
05/25/1973
07/18/1947
03/26/1984
05/27/1917
03/02/1947
10/29/2011
01/19/1958
11/29/1930
09/20/1919
05/18/2019
06/24/1982
03/25/1952
06/16/1904
01/12/1992
08/16/1991
02/05/1948
07/08/2011
10/06/1907
08/12/1955
03/16/1985
06/04/1905
12/13/1978
02/01/1916
07/26/2005
01/23/1943
11/07/1929
12/02/1956
12/07/1929
05/26/1939
02/20/1926
02/16/1965
12/01/2016
01/06/1937
10/17/1970
01/30/1969
05/30/1980
05/22/2009
04/19/2001
03/16/1915
01/14/1999
07/29/1943
09/04/2018
09/18/1983
08/25/1945
08/23/1964
12/01/1922
02/01/1983
09/09/1908
08/02/1967
04/24/1950
02/17/1995
12/25/1918
07/23/1948
04/04/1901
12/06/1949
06/14/1931
05/26/1949
05/28/2019
02/26/2015
05/22/1967
03/12/1970
12/25/1971
02/22/1966
06/13/1912
11/05/1979
03/30/1929
09/10/1977
03/12/1939
03/12/2003
02/03/2001
11/23/1967
06/16/1952
06/18/1988
08/28/2002
06/27/1991
