53 232,47
66 709,11
53 507,96
46 358,73
24 954,98
80 769,77
38 470,52
18 601,25
46 799,51
66 123,40
82 642,97
32 410,87
85 709,26
37 824,45
72 764,83
40 224,03
23 249,53
33 159,03
71 497,30
13 930,09
23 594,35
3 410,57
11 315,79
10 198,80
39 941,33
8 264,96
35 452,31
22 158,57
71 709,11
47 541,47
42 335,71
52 103,80
16 621,04
39 490,73
19 498,89
34 058,52
74 391,27
95 056,41
83 493,54
68 335,83
78 232,04
7 001,04
53 961,96
69 905,71
37 063,93
25 250,32
87 466,89
6 050,24
91 125,13
11 361,65
42 070,97
29 170,71
75 507,15
82 951,51
58 066,18
29 849,52
49 203,82
34 755,71
6 783,37
10 068,89
11 002,20
21 985,56
72 279,65
78 284,15
92 455,24
71 528,97
91 768,35
93 636,10
23 009,32
30 562,39
31 370,59
14 878,06
54 289,94
65 958,01
47 720,27
77 117,67
30 015,40
54 883,11
37 895,12
70 818,80
59 562,76
5 551,11
30 702,39
28 000,68
54 879,40
82 004,01
41 748,49
57 091,34
43 022,69
8 464,05
79 864,39
16 734,13
73 244,43
19 805,44
70 289,77
95 190,73
59 907,43
23 786,60
4 670,14
99 678,47
64 191,74
26 995,99
69 591,47
24 766,54
54 286,34
95 750,19
34 594,81
78 390,45
88 417,25
45 085,67
73 335,39
42 206,03
2 008,75
59 957,83
77 560,78
63 723,32
87 629,85
21 770,98
99 980,09
88 199,83
53 779,86
91 305,63
48 620,68
62 318,31
5 018,65
63 172,73
4 464,14
92 167,48
56 362,61
61 113,12
87 995,58
29 812,57
80 246,97
82 479,38
76 355,03
47 157,99
47 366,06
65 951,15
31 177,96
55 886,08
96 761,78
13 148,44
86 843,52
11 721,36
62 841,07
28 901,57
52 888,08
69 654,16
12 924,69
18 993,89
94 208,21
58 734,66
48 189,26
92 538,19
75 922,64
11 548,05
96 801,65
73 926,20
22 529,95
19 466,27
82 761,38
66 598,25
96 979,66
39 014,16
49 134,18
5 520,31
81 102,87
90 154,14
13 549,38
72 503,66
56 256,63
46 930,01
67 985,36
54 910,71
47 608,98
97 365,75
37 831,44
87 652,81
63 894,86
76 689,51
34 928,22
77 219,31
64 664,87
89 144,98
18 719,30
81 154,94
50 738,04
33 018,77
31 648,37
24 666,98
96 777,77
80 264,84
81 848,48
81 365,71
69 712,85
92 011,35
26 675,21
16 572,65
93 002,46
26 444,32
97 759,98
85 426,00
31 881,82
77 966,88
7 580,17
79 610,76
24 147,09
76 130,96
39 670,86
95 890,54
77 597,46
36 037,36
15 260,13
48 010,48
8 846,28
29 334,76
67 647,83
66 285,36
92 098,20
81 250,97
83 207,00
81 151,77
4 681,78
13 971,40
83 374,78
7 103,18
56 826,37
7 427,82
85 242,95
16 875,03
2 981,00
63 329,46
78 429,10
95 174,91
40 226,98
14 401,80
51 366,02
58 213,70
53 274,38
71 985,48
80 064,92
40 412,35
56 556,02
85 424,21
68 546,72
87 511,35
14 022,33
42 432,06
29 539,11
25 773,15
77 146,57
50 621,34
58 336,07
95 780,26
25 467,73
1 475,87
29 629,87
13 178,95
23 385,28
7 919,18
4 103,71
69 452,73
86 712,74
47 376,84
84 505,05
65 675,48
22 770,81
55 632,85
28 847,35
91 571,81
48 544,30
58 852,39
80 037,70
23 138,58
47 002,62
72 254,95
7 563,99
26 412,64
28 334,98
37 655,19
72 923,64
46 451,05
16 744,82
40 021,08
67 466,34
73 332,01
29 500,87
39 559,39
77 516,54
14 558,94
75 444,71
94 110,28
1 378,97
38 119,53
28 860,35
31 930,63
29 255,48
34 252,09
17 805,81
60 214,39
60 695,70
51 026,43
78 471,95
91 924,12
59 942,97
12 069,53
13 934,34
73 883,58
67 477,64
49 068,33
22 541,26
29 271,30
17 162,54
90 646,54
82 953,08
4 676,05
20 073,49
32 624,59
98 813,82
11 579,82
84 602,69
5 741,63
65 749,08
10 613,80
10 234,21
48 846,37
98 603,25
15 824,55
68 549,77
96 645,30
58 913,10
27 569,00
47 277,70
91 098,39
43 577,06
95 859,06
68 695,19
80 312,06
22 847,36
34 242,03
84 489,50
38 722,49
49 504,06
21 497,88
36 748,79
86 692,29
61 507,50
59 443,42
48 913,53
93 274,44
96 460,94
54 941,33
23 313,95
16 402,45
13 408,04
57 882,29
32 152,65
69 964,66
38 294,03
80 287,42
73 787,54
91 121,78
70 533,51
31 319,42
40 143,98
27 094,90
11 970,89
13 361,57
62 149,30
44 813,80
57 184,16
46 723,21
50 973,55
58 812,54
58 739,48
87 114,77
75 030,90
23 472,43
94 161,79
32 981,59
59 059,84
77 004,06
55 692,90
82 072,19
64 490,96
40 085,30
94 760,47
58 983,99
70 381,71
97 471,51
58 773,85
54 996,07
89 947,51
22 836,23
8 273,80
5 439,38
39 197,36
92 957,92
83 849,71
66 045,51
89 828,50
32 738,38
42 925,83
96 854,84
93 743,06
23 837,01
24 295,97
63 190,50
23 314,68
55 301,95
12 188,74
83 897,88
56 477,96
3 076,11
22 682,18
16 792,70
6 772,67
16 475,66
6 389,27
73 451,66
21 088,18
2 550,72
41 246,03
67 459,44
22 668,53
94 799,63
99 506,77
34 135,80
94 258,24
27 610,96
21 550,32
64 821,79
63 531,08
34 537,03
87 091,60
34 969,21
6 245,11
78 249,02
25 580,67
79 679,55
47 138,74
74 013,09
39 478,59
34 492,76
44 515,85
35 768,27
72 676,16
61 810,57
28 470,38
56 017,77
4 067,95
87 066,24
13 882,01
61 837,29
61 898,39
33 496,63
47 153,07
92 749,77
77 150,67
40 072,84
45 832,76
49 323,92
92 686,39
60 798,36
30 097,56
64 296,38
92 923,95
90 198,47
18 742,74
67 030,46
12 968,49
18 020,75
36 263,85
44 549,73
54 729,95
46 423,90
48 005,74
51 265,21
91 215,11
79 091,05
97 727,56
86 034,67
93 898,62
57 710,29
1 610,62
33 729,87
81 957,18
48 659,05
41 887,90
15 269,33
54 055,83
74 277,18
56 715,17
17 417,39
69 389,80
73 146,92
57 107,24
81 937,33
46 616,25
50 818,70
