8,471.43
5,318.79
19,803.21
54,466.43
90,999.33
57,771.34
57,402.30
75,952.65
52,759.31
15,466.47
66,350.29
65,237.60
80,491.62
1,622.51
72,702.33
10,041.86
89,717.58
4,970.06
70,737.25
59,153.84
43,462.99
80,250.45
5,070.51
50,865.41
96,507.17
4,512.54
28,920.26
61,947.95
20,019.00
46,916.19
62,915.96
75,475.08
52,287.83
38,531.95
68,273.65
23,094.82
14,248.96
86,468.05
37,349.18
44,273.53
1,847.10
22,629.73
57,975.54
29,680.90
6,411.57
11,690.00
27,162.56
47,243.03
82,059.88
57,872.03
14,857.62
92,438.10
59,485.27
95,094.11
11,756.53
70,972.28
39,464.47
52,885.26
95,895.95
91,268.81
17,221.64
66,726.08
44,132.68
94,292.88
62,037.99
69,241.66
93,631.09
67,162.21
37,982.43
2,100.75
98,786.99
97,775.06
82,448.12
7,828.53
99,075.78
54,934.54
81,594.94
17,653.52
54,741.96
47,001.41
70,461.14
10,971.50
59,486.93
63,796.24
49,439.65
27,158.38
57,545.15
91,465.05
89,089.75
35,704.69
19,741.73
87,007.92
84,768.60
24,434.63
14,964.40
96,949.26
37,527.24
78,573.61
82,275.89
42,887.11
58,937.29
47,852.34
70,845.56
79,007.67
58,771.47
31,025.36
11,728.73
22,944.43
52,676.08
70,973.21
13,017.95
4,955.68
22,572.63
55,961.12
6,888.83
85,450.03
54,726.64
52,284.52
84,620.17
24,778.14
52,698.73
14,784.08
91,511.99
93,900.61
51,562.83
50,788.94
25,955.00
73,728.87
25,794.84
43,938.16
15,152.69
83,055.64
99,405.97
66,164.62
12,881.53
88,850.59
30,628.42
64,060.36
73,672.79
95,094.38
33,055.61
55,722.40
85,069.01
42,137.24
35,180.78
85,602.35
82,916.44
47,173.87
50,536.36
79,703.76
97,679.76
19,073.36
90,445.13
18,172.27
52,835.71
80,569.45
53,799.09
70,900.89
74,866.75
2,663.38
4,563.87
36,605.80
99,859.98
3,303.62
4,028.50
33,451.57
18,025.28
57,612.37
37,343.77
4,185.09
81,047.67
5,097.13
52,441.56
16,093.31
48,526.17
68,907.59
46,013.53
35,582.98
36,639.80
94,231.93
65,144.21
66,625.43
88,470.03
25,021.02
53,615.08
90,993.38
38,176.38
80,441.93
39,413.68
25,947.41
15,750.10
94,866.17
71,086.17
29,358.88
32,131.50
14,549.36
82,573.19
41,643.47
18,660.41
15,258.39
95,412.83
86,190.24
69,209.75
85,190.09
46,505.35
45,988.00
44,450.88
25,925.18
18,768.91
97,029.04
95,559.71
50,799.83
27,466.89
40,001.54
12,219.47
76,008.73
49,150.49
29,772.05
5,196.31
37,392.07
58,879.98
15,649.50
52,426.16
79,635.88
13,557.79
53,459.40
9,817.08
85,900.25
27,246.92
38,341.71
73,511.53
51,579.59
56,580.46
36,798.91
52,462.38
50,687.16
39,085.05
56,570.18
91,116.14
14,435.33
9,479.82
26,374.84
18,980.56
78,746.33
56,070.91
44,518.41
55,176.14
98,355.08
55,779.61
85,524.17
63,493.66
39,361.60
22,108.81
92,298.62
37,838.51
12,053.84
90,618.06
87,056.55
44,357.25
79,047.56
84,344.63
28,831.76
91,071.17
96,750.83
12,969.19
5,408.02
83,270.26
19,928.70
57,274.22
81,572.95
33,559.33
19,026.62
59,696.34
18,936.61
53,517.02
62,648.00
26,054.28
84,460.00
80,837.82
8,992.52
88,879.71
82,479.99
81,493.75
26,535.95
86,027.11
54,414.78
2,410.17
40,023.03
12,404.90
52,018.46
74,404.54
92,836.54
11,497.28
55,799.08
52,594.60
30,881.41
57,963.55
2,795.65
59,379.27
79,999.43
39,902.75
74,846.20
20,733.91
46,092.46
57,950.43
64,449.05
98,316.01
40,022.45
43,669.26
27,597.01
37,217.28
47,236.76
84,738.02
93,040.06
70,817.40
94,723.32
54,012.04
32,170.16
38,223.32
51,809.77
94,175.76
73,880.26
88,334.85
7,166.86
45,209.81
19,884.05
2,873.23
61,016.38
27,867.44
78,267.11
92,052.79
27,602.28
81,088.82
27,168.25
79,806.43
78,300.04
97,331.09
9,154.90
45,816.20
64,568.24
87,185.28
15,910.53
92,984.78
97,157.10
21,493.51
10,281.52
49,601.54
45,579.78
19,998.46
36,944.43
86,441.49
83,745.38
25,028.27
78,517.62
44,576.48
95,382.51
83,300.14
34,937.65
82,655.00
91,279.03
52,586.18
6,770.42
6,290.32
1,872.21
79,494.98
1,309.66
96,937.86
36,582.75
6,370.92
49,164.32
68,997.49
95,028.11
6,968.02
44,477.79
14,084.56
80,658.88
64,726.28
39,384.65
9,574.30
45,078.41
15,859.06
80,109.86
25,141.44
15,749.19
67,374.29
6,355.05
74,001.56
57,885.42
8,571.99
22,741.94
21,853.34
5,818.13
64,040.29
75,238.96
49,176.05
9,121.10
27,342.83
44,570.71
58,667.42
30,597.40
51,815.51
98,112.69
96,410.93
56,324.01
7,487.04
70,568.05
20,795.95
73,701.53
23,649.28
89,877.20
49,603.35
9,585.12
67,188.41
61,844.41
5,151.24
66,407.26
16,574.72
92,591.92
80,010.56
20,309.52
78,123.72
56,088.30
21,494.84
24,443.46
95,438.10
96,478.01
3,577.27
7,595.99
66,011.21
72,825.49
16,281.34
24,456.86
28,843.82
97,210.55
63,351.58
32,514.34
64,718.47
94,255.72
42,606.82
53,268.74
53,491.10
48,211.79
21,671.34
34,144.30
98,832.88
36,530.36
97,417.00
34,945.66
99,359.97
48,686.11
84,746.63
28,945.64
13,474.72
23,966.30
96,927.75
2,019.18
28,581.00
83,880.52
41,981.92
75,605.32
87,100.49
41,311.69
22,713.36
98,771.67
32,499.80
82,653.20
98,341.52
26,073.93
27,083.39
24,003.67
11,128.86
75,199.33
11,045.29
18,301.97
68,711.56
70,156.75
17,327.77
1,141.77
94,087.25
84,047.50
1,601.73
14,976.06
64,000.85
92,560.51
9,386.22
64,540.82
19,709.82
29,175.80
99,198.09
83,301.98
39,056.24
34,919.87
10,344.92
58,755.19
67,189.51
6,791.41
7,820.32
42,999.26
59,237.71
2,457.00
